module kratos-fw

go 1.18

require (
	github.com/go-kratos/kratos/v2 v2.6.2
	github.com/go-kratos/swagger-api v1.0.1
	github.com/google/wire v0.5.0
	go.uber.org/automaxprocs v1.5.1
	google.golang.org/genproto v0.0.0-20220524023933-508584e28198
	google.golang.org/grpc v1.46.2
	google.golang.org/protobuf v1.28.0
	gorm.io/driver/sqlserver v1.5.0
	gorm.io/gorm v1.25.1
)

require (
	github.com/fsnotify/fsnotify v1.5.4 // indirect
	github.com/ghodss/yaml v1.0.0 // indirect
	github.com/go-kratos/aegis v0.2.0 // indirect
	github.com/go-kratos/grpc-gateway/v2 v2.5.1-0.20210811062259-c92d36e434b1 // indirect
	github.com/go-logr/logr v1.2.3 // indirect
	github.com/go-logr/stdr v1.2.2 // indirect
	github.com/go-playground/form/v4 v4.2.0 // indirect
	github.com/golang-sql/civil v0.0.0-20220223132316-b832511892a9 // indirect
	github.com/golang-sql/sqlexp v0.1.0 // indirect
	github.com/golang/glog v0.0.0-20210429001901-424d2337a529 // indirect
	github.com/golang/protobuf v1.5.2 // indirect
	github.com/google/uuid v1.3.0 // indirect
	github.com/gorilla/mux v1.8.0 // indirect
	github.com/grpc-ecosystem/grpc-gateway/v2 v2.5.0 // indirect
	github.com/imdario/mergo v0.3.12 // indirect
	github.com/jinzhu/inflection v1.0.0 // indirect
	github.com/jinzhu/now v1.1.5 // indirect
	github.com/kr/text v0.2.0 // indirect
	github.com/microsoft/go-mssqldb v0.21.0 // indirect
	github.com/rakyll/statik v0.1.7 // indirect
	go.opentelemetry.io/otel v1.7.0 // indirect
	go.opentelemetry.io/otel/trace v1.7.0 // indirect
	golang.org/x/crypto v0.0.0-20221005025214-4161e89ecf1b // indirect
	golang.org/x/net v0.7.0 // indirect
	golang.org/x/sync v0.0.0-20220513210516-0976fa681c29 // indirect
	golang.org/x/sys v0.6.0 // indirect
	golang.org/x/text v0.7.0 // indirect
	gopkg.in/yaml.v2 v2.4.0 // indirect
	gopkg.in/yaml.v3 v3.0.1 // indirect
)
